[gd_scene load_steps=2 format=3 uid="uid://dl5svw3owhqeq"]

[ext_resource type="Script" path="res://addons/polygoncirclegen/ui.gd" id="1_16unc"]

[node name="UI" type="HBoxContainer"]
script = ExtResource("1_16unc")

[node name="GenButton" type="Button" parent="."]
layout_mode = 2
text = "Generate circle"

[node name="NumPoints" type="SpinBox" parent="."]
custom_minimum_size = Vector2(115, 0)
layout_mode = 2
min_value = 3.0
max_value = 1000.0
value = 50.0
suffix = "points"

[node name="Radius" type="SpinBox" parent="."]
custom_minimum_size = Vector2(115, 0)
layout_mode = 2
min_value = 1.0
max_value = 1000.0
step = 0.1
value = 5.0
suffix = "radius"

[node name="Hollow" type="CheckBox" parent="."]
layout_mode = 2
text = "Hollow"

[node name="Thickness" type="SpinBox" parent="."]
visible = false
custom_minimum_size = Vector2(105, 0)
layout_mode = 2
tooltip_text = "Thickness goes inward"
min_value = 0.1
max_value = 1000.0
step = 0.1
value = 1.0
suffix = "thick"

[connection signal="pressed" from="GenButton" to="." method="_on_gen_button_pressed"]
[connection signal="toggled" from="Hollow" to="." method="_on_hollow_toggled"]
